{
  "phrases": {
    "commands": {
      "Drop": "Dropped 1x :item:",
      "DropAll": "Dropped :amount:x :item:"
      "Destroy": {
        "Destroy": "Destroyed :amount:x :item:",
        "Title": "Destroy :item:",
        "Desc": "Are you sure you want to destroy :item:?",
        "Yes": "Yes",
        "No": "No"
      },
      "UnableHolster": "You are unable to holster this weapon due to your limited inventory space"
    },
    "bank": {
      "Title": "Inventory - Bank",
    },
    "inventory": {
      "Title": "Inventory",
      "Search": "Search",
      "Money": ":money:"
      "Shipments": ":amount: weapons left",
      "Tabs": {
        "Inventory": "INVENTORY"
      },
      "Actions": {
        "Equip": "Equip",
        "Drop": "Drop",
        "DropAll": "Drop All",
        "Use": "Use",
        "DropAmount": "Drop Amount",
      },
      "Errors": {
        "Invalid": "Invalid number?",
        "TooLow": "Too low of a number",
        "TooHigh": "You can't have drop that many because you don't have that many!",
      },
      "Fields": {
        "Amount": "x:amount:",
        "MaxAmount": "max x:amount:",
      },
      "Sort": {
        "Unsorted": "Unsorted",
        "Alphabetically": "Alphabetically",
      },
      "Pickup": {
        "Markup": ":font::color:Press :/color::rarityColor:ALT + :key::/color: to add :name: to your inventory:/color::/font:",
        "Pickup": "Press ALT + :key: to add :name: to your inventory"
      }
    }
  }
}
